Maharashtra Ads
…
sum(word2_sentiments$value*word2_sentiments$n)

## [1] -87

y_test_cor <- y_test %>% 
  pairwise_cor(word1, word2, sort = TRUE) 

## Warning: `tbl_df()` is deprecated as of dplyr 1.0.0.
## Please use `tibble::as_tibble()` instead.
## This warning is displayed once every 8 hours.
## Call `lifecycle::last_warnings()` to see where this warning was generated.

y_test_cor

## # A tibble: 420 x 3
##    item1   item2         correlation
##    <chr>   <chr>               <dbl>
##  1 govt    sector              1    
##  2 sector  govt                1    
##  3 account women               1    
##  4 acts    women               1    
##  5 women   account             1    
##  6 acts    account             1    
##  7 women   acts                1    
##  8 account acts                1    
##  9 sector  comprehensive       0.686
## 10 govt    comprehensive       0.686
## # ... with 410 more rows
…
